105945 201700 383
316469 517816 470
499934 773442 509
829324 998432 525
300807 514281 470
37993 860595 525
215635 578402 470
372106 385351 423
580564 680061 509
540984 677926 509
195908 493818 449
240985 604998 470
109414 588373 470
423345 433778 418
506529 757179 509
464928 545710 470
546849 768025 509
604550 626823 509
803691 911755 525
159141 325596 443
532182 632996 509
7723 553652 470
7772 213222 383
201659 955683 525
156406 747311 509
124102 454314 449
272030 894746 525
878 349415 443
303425 464626 449
452026 906868 525
470325 569485 470
581785 656396 509
432314 792317 509
35629 874184 525
388722 528582 470
445911 968500 525
312389 702869 509
755695 950203 525
16622 92048 351
495649 726768 509
38453 946117 525
144788 636096 509
178957 526769 470
141165 393351 443
140089 251033 443
318804 535761 470
418409 844722 525
210402 822149 509
433805 542366 470
337825 521470 470
456979 990523 525
456053 613113 470
330869 743719 509
158659 237792 443
211009 974615 525
391587 461477 449
285166 769397 509
285798 513849 470
6878 563963 470
388362 829102 509
254877 450587 449
41981 442702 449
453606 930253 525
483104 692926 509
471611 980330 525
14308 989813 525
222916 576734 470
56603 786860 509
555645 892336 525
473426 600017 470
681936 743415 504
83465 292441 443
781727 856925 525
52065 524759 470
395332 710489 509
25222 84983 351
275026 792069 509
88427 549201 470
501052 545631 470
250183 547389 470
654141 810917 504
109375 871196 525
95931 744743 509
552722 774054 509
737044 809397 468
685374 811943 504
336009 369801 441
243861 825510 509
541110 958036 525
314744 423988 449
79781 853257 525
256130 992709 525
126106 570254 470
501597 746252 509
283938 326555 389
189163 853639 525
244002 699717 509
690960 986964 525
985320 986014 365
907095 929680 476
435162 800100 509
850956 997863 507
371208 858392 525
86846 456377 449
65252 596434 470
557040 676938 509
361187 848664 525
573752 737053 509
278005 449154 449
778815 839903 525
564429 863965 525
356734 713527 509
438735 831600 509
465579 484736 413
16834 569439 470
366720 802630 509
739519 855673 525
68215 918875 525
113007 468473 449
166867 557234 470
752660 764943 424
328533 375186 441
880101 942873 507
110907 605548 470
380612 709915 509
205278 528812 470
176247 538836 470
404875 436399 449
394839 888877 525
100931 330257 443
360725 767159 509
124092 922819 525
250738 804869 509
577405 691187 509
399780 857051 525
27363 61168 340
322817 542844 470
795120 891647 525
235871 772724 509
105428 580942 470
14676 457253 449
244882 694139 509
60163 643110 509
480906 782017 509
280974 438454 449
233108 723824 509
947890 992360 458
181866 929628 525
5496 579890 470
455945 695737 509
87496 384403 443
553942 990627 525
189165 572687 470
399960 866295 525
142709 581829 470
157807 373186 443
372846 566204 470
351780 567708 470
734390 995518 525
109293 383963 443
227978 616306 470
170733 541185 470
328648 536098 470
64930 632688 509
849444 963570 507
41707 127493 354
688209 910984 525
416391 611000 470
698466 902761 525
271801 994583 525
794705 935966 525
129189 985249 525
437127 842072 525
197068 645328 509
441800 519039 470
992 385028 443
749662 929244 525
526276 901265 525
135320 439652 449
858681 940789 507
96517 629617 509
604770 628533 509
651115 785030 504
172022 728368 509
762203 954721 525
53939 222442 386
28627 577574 470
627397 786903 504
355798 443074 449
152605 810375 509
73864 468407 449
261873 378945 441
312439 773983 509
69988 141999 354
451307 989077 525
607540 638557 509
247471 345457 407
50141 877279 525
64303 489234 449
461309 862502 525
225447 622197 470
181157 810194 509
126901 328851 443
312181 316945 384
241711 772496 509
287723 587403 470
834065 860795 525
79434 611581 470
9352 409114 443
399439 887660 525
259058 892731 525
376340 587527 470
18226 83654 351
531315 951394 525
228600 265066 443
783548 886241 525
15435 296051 443
66202 203066 383
692040 921265 525
406791 837403 509
145792 308731 443
739471 915187 525
354382 919635 525
322686 658763 509
155425 701263 509
424107 985186 525
6985 739457 509
18620 389824 443
766134 982797 525
365328 750343 509
733824 849200 525
374714 546573 470
618217 848926 525
454431 713789 509
661051 771164 504
334893 556494 470
533038 778410 509
112847 909456 525
480658 740754 509
243688 739708 509
96999 630594 509
593322 721306 509
154939 930765 525
414540 752539 509
460458 635326 509
641281 700575 442
538724 580756 452
890771 974958 507
690408 893589 525
