1 10 20
100 200 125
201 210 89
900 1000 174
1 1 1
99 1210 182
11 222 125
58 1234 182
76 56879 340
202 10120 262
1123 107987 354
876 20430 279
87 4287 238
767 4567 238
55 555 144
66 666 145
77 777 171
88 888 179
99 999 179
1 9 20
1 8 17
1 7 17
1 6 9
1 5 8
1 4 8
1 3 8
1 2 2
787 2100 182
9 1000 179
3001 3008 155
545 657 145
24 200 125
9001 10000 260
853 931 179
177 1077 179
166 1066 179
10055 20055 279
291 2150 182
467 4679 238
9876 98765 351
133 1033 179
321 4321 238
782 965 179
5 234 128
243 10789 262
1890 76521 340
909 6790 262
404 7653 262
8888 9999 260
6799 7653 257
90873 99999 333
200 400 144
400 600 142
100 200 125
200 300 128
400 500 142
600 700 145
800 900 179
1000 1100 169
1100 1200 182
1200 1300 177
1300 1400 177
1500 1600 167
1600 1700 180
1700 1800 180
1800 1900 175
1900 2000 175
2000 2100 157
2100 2200 170
2200 2300 183
2300 2400 183
2500 2600 178
2600 2700 191
2800 2900 173
2900 3000 217
3000 3100 186
3100 3200 199
3200 3300 168
3300 3400 181
3400 3500 181
3500 3600 194
3600 3700 207
3700 3800 238
3800 3900 176
3900 4000 189
4000 4100 189
4100 4200 189
4200 4300 202
4400 4500 184
4600 4700 184
1 5000 238
4700 4800 197
4800 4900 179
4900 5000 210
5000 5100 179
5100 5200 179
5200 5300 192
5300 5400 192
5400 5500 192
5500 5600 236
5600 5700 205
5700 5800 205
5900 6000 187
6100 6200 262
6200 6300 187
6300 6400 200
6400 6500 169
6600 6700 182
1 6000 238
100000 10 351
9898 98 262
5656 56 238
1212 12 182
2323 23 183
3434 34 217
4545 45 238
5656 56 238
6767 67 262
7878 78 262
8989 89 262
9090 90 262
10000 100 262
11000 110 268
12000 120 268
98980 980 351
56560 560 340
12120 120 268
23230 230 279
34340 340 311
45450 450 324
56560 560 340
67670 670 340
78780 780 351
89890 890 351
90900 900 351
787866 24 509
4656 767 238
89893 210 351
3435 5657 238
1234 665 182
35868 1035 324
13400 2040 276
20351 21540 256
74527 1000 340
82939 760 351
3727 989 238
9872 7651 260
89022 33677 351
86672 89902 333
8989 787878 509
5000 130 238
5100 2040 238
5300 2150 238
55000 10600 340
56000 160 340
57000 180 340
87872 1148 351
9814 977 262
78123 9662 351
9666 999 262
5588 98765 351
1289 2389 183
53290 4729 340
100900 1050 351
711000 1150 509
512000 1520 470
598980 9850 470
56760 7560 340
128120 1208 354
232230 2230 443
343340 3430 443
454350 4450 449
76560 5760 340
77670 7670 351
88780 8780 351
39890 8390 324
390900 3900 443
77866 324 351
46556 5767 324
589893 210 470
53435 56579 322
51234 6965 324
935868 19035 525
183400 28040 383
203751 271540 443
74527 9000 340
82939 7603 351
372557 94489 443
77000 76000 307
76000 75000 307
75000 74000 325
74000 73000 294
72000 71000 325
77023 6000 340
88888 88 351
87777 88 351
86666 88 351
85555 88 351
84444 88 351
82222 88 351
554455 9700 470
445555 8700 449
555544 7700 470
557755 6700 470
575755 5700 470
474747 11989 449
476647 22989 449
477747 33989 449
478847 44989 449
479947 55989 449
634433 11111 509
364433 11221 443
336433 11331 443
334633 11441 443
334463 11551 443
