132682 474293 449
951128 521241 525
662975 447948 509
607927 262661 470
483911 234762 449
651843 760907 504
980150 212115 525
145201 57131 375
977523 446468 525
308331 744207 509
742569 382317 509
16278 191470 383
962042 454434 525
15897 147849 375
597295 640361 509
161709 769055 509
474859 759809 509
135034 897571 525
547538 390714 470
259719 30194 443
918344 781707 525
958914 232850 525
468652 825618 509
24750 520014 470
83170 40636 351
653734 29626 509
561129 899417 525
540094 974384 525
152458 583030 470
114469 750050 509
102925 40500 351
780968 101189 509
398988 67442 443
69867 600128 470
994093 87879 525
789816 56229 509
100051 963033 525
491328 75692 449
19092 970365 525
892523 259057 525
189874 907332 525
293645 268825 407
535045 403741 470
744203 259712 509
213101 743643 509
201708 186903 360
906167 835310 525
514404 453919 470
682404 896886 525
892834 154477 525
581002 222402 470
557131 127085 470
244093 162505 443
526991 790691 509
671678 516085 509
313559 658235 509
335668 203771 443
10954 143124 375
619485 535081 452
173289 844686 525
260502 62942 443
419293 682906 509
930416 929240 339
961003 978301 458
782318 19015 509
135279 928692 525
816314 998945 525
191618 273211 443
660308 533952 509
362913 269482 441
245466 681492 509
300579 304531 340
922875 49077 525
253087 745706 509
804726 380574 509
364998 563450 470
690166 990822 525
743909 219245 509
412231 564150 470
241515 568602 470
199667 386307 443
38542 370234 443
804176 207936 509
191734 575233 470
777120 417769 509
174989 388816 443
900153 580169 525
417150 691060 509
819193 923709 525
579149 123854 470
989466 949519 458
513821 283422 470
331746 119752 443
388281 979004 525
138421 237447 443
489202 511125 426
389557 588202 470
430249 263953 449
28955 554471 470
463827 778882 509
992922 760757 525
588529 448287 470
609258 951578 525
413801 120014 449
1274 474637 449
158271 319156 443
100551 294486 443
653830 24651 509
49456 812834 509
153130 867321 525
316947 411647 449
379565 298172 441
326124 971539 525
781386 302173 509
132874 769300 509
129616 983104 525
429324 471380 444
660457 552617 509
159388 910920 525
536247 654481 509
34760 573475 470
348043 681905 509
617860 899728 525
346063 994233 525
486709 330589 449
646901 875295 525
7413 255676 443
555975 868538 525
66833 312044 443
952775 35888 525
661419 743385 504
289806 844646 525
213304 366075 443
488003 282912 449
780865 185642 509
378340 707993 509
159621 274822 443
42869 893235 525
460093 142046 449
407442 669909 509
651339 853771 525
701959 692758 411
143250 931977 525
92973 725071 509
153721 359097 443
861789 452483 525
428705 36734 449
881848 344931 525
199796 812082 509
104227 658339 509
171596 598637 470
905715 610917 525
117361 191037 383
55072 542740 470
305755 578405 470
450135 16498 449
355856 356351 348
544998 125408 470
128814 869351 525
718003 699320 504
162723 28797 383
688481 924162 525
974648 938298 507
219143 886479 525
841306 46665 525
14992 616332 470
845685 646947 525
417495 941670 525
500730 950403 525
502457 460281 444
718524 212990 509
632630 23894 509
932268 718995 525
720142 834504 468
844346 889194 445
989330 820773 525
173520 849146 525
358175 743866 509
993626 27239 525
295797 731561 509
968216 12842 525
616671 168908 470
565609 203840 470
431027 137415 449
261397 87024 443
248597 684415 509
468061 798199 509
14349 513054 470
722558 26812 509
25132 69947 340
25593 826043 509
658974 935723 525
551528 791153 509
322271 325588 384
440958 67885 449
253498 616273 470
563636 696915 509
182490 830446 509
60054 556668 470
969095 553094 525
112645 484875 449
381087 647008 509
705242 114636 509
406358 318655 441
147580 748684 509
59130 949651 525
296650 891916 525
80020 773563 509
871831 755291 525
943621 545798 525
911934 51922 525
920748 800904 525
37118 728804 509
398195 94907 443
431936 626413 509
793068 337345 509
840873 422709 525
305475 771682 509
691898 906820 525
122132 178486 383
478458 557875 470
754790 653844 504
859567 861532 357
581332 163422 470
542095 884061 525
493248 566999 470
345000 977205 525
503891 100935 449
205973 550088 470
636357 411323 509
845320 332617 525
299796 208187 443
149323 1319 375
634048 572389 509
299037 119388 443
343131 353485 441
840864 171765 525
465440 491560 413
392772 806669 509
736914 638326 504
460120 941538 525
18333 312499 443
539196 616130 452
530248 727839 509
44617 303376 443
909616 182742 525
669025 47232 509
127422 134222 344
78731 180820 383
445378 847357 525
282963 55830 443
413625 982853 525
568061 993641 525
977884 147364 525
916428 148878 525
82957 744618 509
542151 281695 470
263842 79907 443
734389 293853 509
58730 687986 509
39858 251122 443
976778 426047 525
386552 897017 525
74707 658342 509
786936 464485 509
705718 252463 509
672942 586868 509
860016 454164 525
788528 377249 509
577181 998112 525
982749 161770 525
339004 540512 470
425736 673739 509
222016 480429 449
226463 413772 449
234589 794274 509
615697 859626 525
687566 496411 509
660780 767523 504
637499 109819 509
7646 999492 525
913981 2153 525
440306 637799 509
451467 286801 449
391910 256333 441
354247 720269 509
676661 713655 504
867611 58252 525
429086 641618 509
220801 814818 509
808461 587549 509
522648 602036 452
414056 72764 449
847621 994078 507
492843 924659 525
519492 859797 525
225387 783865 509
119340 472782 449
218417 653910 509
530946 156617 470
